…
# replicated in salesforcer package
result2 <- salesforcer::rforcecom.query(session, soqlQuery = this_soql)
result2
#> # A tibble: 203 x 2
#>    Id                 Email                    
#>    <chr>              <chr>                    
#>  1 0036A000002C6MWQA0 rose@edge.com            
#>  2 0036A000002C6MXQA0 sean@edge.com            
#>  3 0036A000002C6MYQA0 jrogers@burlington.com   
#>  4 0036A000002C6MbQAK barr_tim@grandhotels.com 
#>  5 0036A000002C6McQAK bond_john@grandhotels.com
#>  6 0036A000002C6MdQAK spavlova@uog.com         
#>  7 0036A000002C6MeQAK lboyle@uog.com           
#>  8 0036A000002C6MfQAK b.levy@expressl&t.net    
#>  9 0036A000002C6MgQAK j.davis@expressl&t.net   
#> 10 0036A000002C6MhQAK jane_gray@uoa.edu        
#> # ... with 193 more rows

# the better way in salesforcer to do multiple records
salesforcer_results <- sf_query(this_soql)
salesforcer_results
#> # A tibble: 203 x 2
#>    Id                 Email                    
#>    <chr>              <chr>                    
#>  1 0036A000002C6MWQA0 rose@edge.com            
#>  2 0036A000002C6MXQA0 sean@edge.com            
#>  3 0036A000002C6MYQA0 jrogers@burlington.com   
#>  4 0036A000002C6MbQAK barr_tim@grandhotels.com 
#>  5 0036A000002C6McQAK bond_john@grandhotels.com
#>  6 0036A000002C6MdQAK spavlova@uog.com         
#>  7 0036A000002C6MeQAK lboyle@uog.com           
#>  8 0036A000002C6MfQAK b.levy@expressl&t.net    
#>  9 0036A000002C6MgQAK j.davis@expressl&t.net   
#> 10 0036A000002C6MhQAK jane_gray@uoa.edu        
#> # ... with 193 more rows
```
…
