Working with Bulk APIs
…
Salesforce has more recently introduced the Bulk 2.0 API which is supposed to be faster and have a more consistent JSON/REST based API than the Bulk 1.0 API. In some cases I have noticed that the ordering of the result records will differ from the order of the input data because the data is batched and processed asynchronously. by Salesforce instead of R. However, The Bulk 2.0 API returns every single field that was included in the call so if you have an identifying key your dataset, then it should not be a problem to join on that key with your original data to bring in the newly assigned Salesforce Id that is generated when the record was created in Salesforce. However, I have find it just seems wasteful to transfer all of the field information back after the query and have not found a significant performance improvement between the Bulk 1.0 and Bulk 2.0. Finally, note that the status field names (“Success”, “Created”, “Error”) are different from the Bulk 2.0 API.

n <- 20
prefix <- paste0("Bulk-", as.integer(runif(1,1,100000)), "-")
new_contacts <- tibble(FirstName = rep("Test", n),
                       LastName = paste0("Contact-Create-", 1:n),
                       test_number__c = 1:n,
                       My_External_Id__c=paste0(prefix, letters[1:n]))

created_records_v1 <- sf_create(new_contacts[1:10,], 
                                object_name = "Contact", 
                                api_type = "Bulk 1.0")
created_records_v1
#> # A tibble: 10 × 4
#>   Id                 Success Created Error
#>   <chr>              <lgl>   <lgl>   <lgl>
#> 1 0033s00001BXefxAAD TRUE    TRUE    NA   
#> 2 0033s00001BXefyAAD TRUE    TRUE    NA   
#> 3 0033s00001BXefzAAD TRUE    TRUE    NA   
#> 4 0033s00001BXeg0AAD TRUE    TRUE    NA   
#> 5 0033s00001BXfJ9AAL TRUE    TRUE    NA   
#> # … with 5 more rows

created_records_v2 <- sf_create(new_contacts[11:20,],
                                object_name = "Contact", 
                                api_type = "Bulk 2.0")
created_records_v2
#> # A tibble: 10 × 7
#>   sf__Id             sf__Created sf__Error FirstName LastName   My_External_Id_…
#>   <chr>              <lgl>       <lgl>     <chr>     <chr>      <chr>           
#> 1 0033s00001BXe6cAAD TRUE        NA        Test      Contact-C… Bulk-89152-k    
#> 2 0033s00001BXe6dAAD TRUE        NA        Test      Contact-C… Bulk-89152-l    
#> 3 0033s00001BXe6eAAD TRUE        NA        Test      Contact-C… Bulk-89152-m    
#> 4 0033s00001BXfJTAA1 TRUE        NA        Test      Contact-C… Bulk-89152-n    
#> 5 0033s00001BXfJUAA1 TRUE        NA        Test      Contact-C… Bulk-89152-o    
#> # … with 5 more rows, and 1 more variable: test_number__c <dbl>
…
