An Implementation of 'Salesforce' APIs Using Tidy Principles • salesforcer
…
The data is returned as a list because object definitions are highly nested representations. You may notice that we are missing some really specific details, such as, the picklist values of a field with type “Picklist”. You can get that information using sf_describe_object_fields(). Here is an example using sf_describe_object_fields() where we get a tbl_df with one row for each field on the Account object:

acct_fields <- sf_describe_object_fields('Account')
acct_fields %>% select(name, label, length, soapType, type)
#> # A tibble: 67 x 5
#>    name              label                   length soapType    type     
#>    <chr>             <chr>                   <chr>  <chr>       <chr>    
#>  1 Id                Account ID              18     tns:ID      id       
#>  2 IsDeleted         Deleted                 0      xsd:boolean boolean  
#>  3 MasterRecordId    Master Record ID        18     tns:ID      reference
#>  4 Name              Account Name            255    xsd:string  string   
#>  5 Type              Account Type            40     xsd:string  picklist 
#>  6 ParentId          Parent Account ID       18     tns:ID      reference
#>  7 BillingStreet     Billing Street          255    xsd:string  textarea 
#>  8 BillingCity       Billing City            40     xsd:string  string   
#>  9 BillingState      Billing State/Province  80     xsd:string  string   
#> 10 BillingPostalCode Billing Zip/Postal Code 20     xsd:string  string   
#> # … with 57 more rows
…
