Working with Attachments • salesforcer
…
# create a data.frame or tbl_df out of this information
attachment_details <- tibble(Body = rep(c(file_path1, 
                                          file_path2, 
                                          file_path3), 
                                        times=2),
                             ParentId = rep(c(parent_record_id1, 
                                              parent_record_id2), 
                                            each=3))

# create the attachments!
result <- sf_create_attachment(attachment_details)
result
#> # A tibble: 6 × 2
#>   id                 success
#>   <chr>              <lgl>  
#> 1 00P3s00000gWmlHEAS TRUE   
#> 2 00P3s00000gWmlMEAS TRUE   
#> 3 00P3s00000gWmlREAS TRUE   
#> 4 00P3s00000gWmlWEAS TRUE   
#> 5 00P3s00000gWmlbEAC TRUE   
#> # … with 1 more row

Downloading Attachments

After uploading attachments to Salesforce you can download them by first querying the metadata in the Attachment object. This metadata provides the Id for the blob data attachment for download. A convenience function, sf_download_attachment(), has been created to download attachments quickly. The example below shows how to query the metadata of attachments belonging to particular ParentId.

# pull down all attachments associated with a particular record
queried_attachments <- sf_query(sprintf("SELECT Id, Body, Name, ParentId
                                         FROM Attachment
                                         WHERE ParentId IN ('%s', '%s')", 
                                         parent_record_id1, parent_record_id2))
queried_attachments
#> # A tibble: 6 × 4
#>   Id                 Body                                 Name     ParentId     
#>   <chr>              <chr>                                <chr>    <chr>        
#> 1 00P3s00000gWmlHEAS /services/data/v52.0/sobjects/Attac… cloud.p… 0016A0000035…
#> 2 00P3s00000gWmlMEAS /services/data/v52.0/sobjects/Attac… logo.png 0016A0000035…
#> 3 00P3s00000gWmlREAS /services/data/v52.0/sobjects/Attac… old-log… 0016A0000035…
#> 4 00P3s00000gWmlbEAC /services/data/v52.0/sobjects/Attac… logo.png 0016A0000035…
#> 5 00P3s00000gWmlWEAS /services/data/v52.0/sobjects/Attac… cloud.p… 0016A0000035…
#> # … with 1 more row
…
Uploading large batches of attachments using the Bulk API

The SOAP and REST APIs are good for working with a few attachments at a time. However, the Bulk API can be invoked using api_type=“Bulk 1.0” to automatically take a data.frame or tbl_df of Attachment field data and create a ZIP file with CSV manifest that is required by that API to upload. In the example above, we downloaded the three attachments each belonging to two different parent records. Assuming that I have run that code and the files are in that my computer I can demonstrate that all of them can be uploaded at once using the Bulk 1.0 API.

# create the attachment metadata required (Name, Body, ParentId)
attachment_details <- queried_attachments %>% 
  mutate(Body = file.path(Path, Name)) %>% 
  select(Name, Body, ParentId) 

result <- sf_create_attachment(attachment_details, api_type="Bulk 1.0")
result
#> # A tibble: 6 × 4
#>   Id                 Success Created Error
#>   <chr>              <lgl>   <lgl>   <lgl>
#> 1 00P3s00000gWmlqEAC TRUE    TRUE    NA   
#> 2 00P3s00000gWmlrEAC TRUE    TRUE    NA   
#> 3 00P3s00000gWmlsEAC TRUE    TRUE    NA   
#> 4 00P3s00000gWmltEAC TRUE    TRUE    NA   
#> 5 00P3s00000gWmluEAC TRUE    TRUE    NA   
#> # … with 1 more row
…
