Passing Control Args • salesforcer
…
Creating the control argument with sf_control

If this type of control structure is new to you, take a look at the
documentation for the glm and glm.control
functions. The way these two functions behave is exactly how functions
like sf_create and sf_control work with each
other. As demonstrated above you can pass any number of arbitrary
controls into the function and they are all gathered up into the control
by control = list(...). However, you can specify the
control directly like this:

sf_query("SELECT Id, Name FROM Account LIMIT 1000",
         object_name = "Account",
         control = sf_control(QueryOptions = list(batchSize = 200)))
#> # A tibble: 16 × 2
#>   Id                 Name                                
#>   <chr>              <chr>                               
#> 1 0013s00000zFgA6AAK KEEP Test Account With Child Records
#> 2 0013s00000zFdugAAC KEEP Test Account With Child Records
#> 3 0013s000014jF2HAAU Test Account For Performance Test   
#> 4 0016A0000035mJEQAY GenePoint                           
#> 5 0016A0000035mJCQAY United Oil & Gas, UK                
#> # ℹ 11 more rows
…
