Supported Queries • salesforcer
…
Default query behavior

The default API for the sf_query() function is the REST API because it is both fast and flexible. Every effort has been made so that the format of the results from the REST and SOAP APIs is exactly the same. The only difference will be speed. The REST API uses JSON, which can generally be processed more quickly than XML used in the SOAP API.

soql <- "SELECT Id,
                FirstName, 
                LastName
         FROM Contact
         LIMIT 10"

queried_records <- sf_query(soql) # REST API is the default api_type
queried_records
#> # A tibble: 10 x 3
#>   Id                 FirstName LastName        
#>   <chr>              <chr>     <chr>           
#> 1 0033s000013wlpjAAA Test      Contact-Create-1
#> 2 0033s000013wlpkAAA Test      Contact-Create-2
#> 3 0033s000014AG4HAAW Test      Contact-Create-1
#> 4 0033s0000149ZoCAAU Test      Contact-Create-1
#> 5 0033s0000149ZoDAAU Test      Contact-Create-2
#> # … with 5 more rows

queried_records <- sf_query(soql, api_type = "SOAP")
queried_records
#> # A tibble: 10 x 3
#>   Id                 FirstName LastName        
#>   <chr>              <chr>     <chr>           
#> 1 0033s000013wlpjAAA Test      Contact-Create-1
#> 2 0033s000013wlpkAAA Test      Contact-Create-2
#> 3 0033s000014AG4HAAW Test      Contact-Create-1
#> 4 0033s0000149ZoCAAU Test      Contact-Create-1
#> 5 0033s0000149ZoDAAU Test      Contact-Create-2
#> # … with 5 more rows
…
contacts <- sf_query("SELECT Id, FirstName, Account.Id
                     FROM Contact", 
                     api_type = "Bulk 2.0")

accounts <- sf_query("SELECT Id, Name 
                     FROM Account", 
                     api_type = "Bulk 2.0")

nested_query_recs <- accounts %>% 
  left_join(contacts %>% 
              rename(`Contact.Id` = Id, 
                     `Contact.FirstName` = FirstName), 
            by = c("Id" = "Account.Id"))
nested_query_recs
#> # A tibble: 1,315 x 4
#>   Id              Name                         Contact.Id       Contact.FirstNa…
#>   <chr>           <chr>                        <chr>            <chr>           
#> 1 0013s00000zFdu… KEEP Test Account With Chil… 0033s000012Nkzw… KEEP            
#> 2 0013s00000zFdu… KEEP Test Account With Chil… 0033s000012Nkzx… KEEP            
#> 3 0013s00000zFdu… KEEP Test Account With Chil… 0033s000012Nkzy… KEEP            
#> 4 0013s00000zFdu… KEEP Test Account With Chil… 0033s000012Nkzz… KEEP            
#> 5 0013s00000zFdu… KEEP Test Account With Chil… 0033s000012Nl00… KEEP            
#> # … with 1,310 more rows

aggregate_query_recs <- nested_query_recs %>% 
  group_by(Id) %>%
  summarize(.groups = 'drop', 
            contacts_n = sum(!is.na(Contact.Id)))
aggregate_query_recs
#> # A tibble: 12 x 2
#>   Id                 contacts_n
#>   <chr>                   <int>
#> 1 0013s00000zFdugAAC        300
#> 2 0013s00000zFgA6AAK          0
#> 3 0013s000011K0xmAAC        999
#> 4 0016A0000035mJ4QAI          2
#> 5 0016A0000035mJ5QAI          1
#> # … with 7 more rows
…
As you can see above the {salesforcer} package will try to infer the object in the query if not explicitly provided. If it does not guess correctly, then please specify.

Cleanup after performance tests

By keeping track of the account ids used in our tests, it is fairly easy to find and delete these test records from our Org to save space.

# cleanup performance test Contact records ...
contacts_to_delete <- sf_query(
  sprintf("SELECT Id 
          FROM Contact 
          WHERE Account.Id = '%s'",
          new_account$id)
)
sf_delete(contacts_to_delete$Id, "Contact", api_type="Bulk 2.0")
#> # A tibble: 999 x 4
#>   Id                 sf__Id             sf__Created sf__Error
#>   <chr>              <chr>              <lgl>       <lgl>    
#> 1 0033s000014B3XAAA0 0033s000014B3XAAA0 FALSE       NA       
#> 2 0033s000014B3XBAA0 0033s000014B3XBAA0 FALSE       NA       
#> 3 0033s000014B3WxAAK 0033s000014B3WxAAK FALSE       NA       
#> 4 0033s000014B3WyAAK 0033s000014B3WyAAK FALSE       NA       
#> 5 0033s000014B3WzAAK 0033s000014B3WzAAK FALSE       NA       
#> # … with 994 more rows
…
Relationship queries

Salesforce supports retrieving fields from related objects when querying another object. This is similar to performing a JOIN in SQL, but without having to specify the join keys because Salesforce already knows the relationship between the two objects. There are two types of relationship queries (1. child-to-parent lookups and 2. parent-to-child nested queries) detailed in the sections below.

child-to-parent “lookup” queries

The first type of relationship query and the most common is child to parent. For example, the Contact object (child) to their parent, the Account object. In order to pull down parent object fields with your child record query, you just need to prefix any fields from the related object by concatenating the name of the object with the field name separated by a period. In the example below we are retrieving all Contact object records that have a relationship to an Account.

# child-to-parent relationship (e.g. Account.Name from Contact record)
sf_query(
  "SELECT Id, FirstName, Account.Name
  FROM Contact
  WHERE Account.Id != null"
)
#> # A tibble: 315 x 3
#>   Id                 FirstName Account.Name                   
#>   <chr>              <chr>     <chr>                          
#> 1 0036A000002C6MWQA0 Rose      Edge Communications            
#> 2 0036A000002C6MXQA0 Sean      Edge Communications            
#> 3 0036A000002C6MfQAK Babara    Express Logistics and Transport
#> 4 0036A000002C6MgQAK Josh      Express Logistics and Transport
#> 5 0036A000002C6MhQAK Jane      University of Arizona          
#> # … with 310 more rows

Sometimes you may notice that the requested relationship fields do not appear in the query results. This is because the SOAP and REST APIs do not return any related object information if it does not exist on the record and there is no reliable way to extract and rebuild the empty columns based on the query string. In the example below, if there were Account information an additional column titled "Account.Name" would appear in the results.

# child-to-parent relationship (e.g. Account.Name from Contact record)
sf_query(
  "SELECT Id, FirstName, Account.Name
  FROM Contact
  WHERE Account.Id = null"
)
#> # A tibble: 592 x 2
#>   Id                 FirstName
#>   <chr>              <chr>    
#> 1 0033s000013wlpjAAA Test     
#> 2 0033s000013wlpkAAA Test     
#> 3 0033s000014AG4HAAW Test     
#> 4 0033s0000149ZoCAAU Test     
#> 5 0033s0000149ZoDAAU Test     
#> # … with 587 more rows
…
parent-to-child “nested” queries

Instead of “looking up” a related field, users can write queries that retrieve the individual records related to a parent. For example, if you would like all of the Accounts and their Contacts you can write the query like so:

sf_query(
  "SELECT Id, Name, 
    (SELECT Id, FirstName FROM Contacts)
  FROM Account"
)
#> # A tibble: 316 x 4
#>   Id              Name                         Contact.FirstName Contact.Id     
#>   <chr>           <chr>                        <chr>             <chr>          
#> 1 0013s00000zFgA… KEEP Test Account With Chil… <NA>              <NA>           
#> 2 0013s00000zFdu… KEEP Test Account With Chil… KEEP              0033s000012Nl0…
#> 3 0013s00000zFdu… KEEP Test Account With Chil… KEEP              0033s000012Nkz…
#> 4 0013s00000zFdu… KEEP Test Account With Chil… KEEP              0033s000012Nkz…
#> 5 0013s00000zFdu… KEEP Test Account With Chil… KEEP              0033s000012Nkz…
#> # … with 311 more rows

At first glance this query may appear the same as a lookup query on the Contact object that includes the account id and name. However, the small difference is that every Account is included, regardless of whether or not they have a Contact. This can be helpful when you want to ensure a query contains all of the parent records and their child records, if they exist. Also, note that the plural object name is used inside the nested query (“Contacts” instead of “Contact”).

Finally, a parent-to-child nested query can also contain a child-to-parent lookup relationship within it. Below is an example where the Owner Id on the Contact is included so you can know who is responsible for the Contacts under each Account.

sf_query(
  "SELECT Name, Owner.Id, 
    (SELECT Id, FirstName, Owner.Id FROM Contacts)
   FROM Account"
)
#> # A tibble: 316 x 5
#>   Name              Contact.FirstName Contact.Id    Contact.Owner.Id Owner.Id   
#>   <chr>             <chr>             <chr>         <chr>            <chr>      
#> 1 KEEP Test Accoun… <NA>              <NA>          <NA>             0056A00000…
#> 2 KEEP Test Accoun… KEEP              0033s000012N… 0056A000000MPRj… 0056A00000…
#> 3 KEEP Test Accoun… KEEP              0033s000012N… 0056A000000MPRj… 0056A00000…
#> 4 KEEP Test Accoun… KEEP              0033s000012N… 0056A000000MPRj… 0056A00000…
#> 5 KEEP Test Accoun… KEEP              0033s000012N… 0056A000000MPRj… 0056A00000…
#> # … with 311 more rows
…
