Working with Reports • salesforcer
…
The report Id above ("00O3s000006tE7zEAE") is the only information needed to pull those same results from an R session, like so:

my_report_id <- "00O3s000006tE7zEAE"
results <- sf_run_report(my_report_id)
results
#> # A tibble: 14 x 8
#>   `Contact ID` `First Name` `test number` `Contact Owner` `Account ID`
#>   <chr>        <chr>                <dbl> <chr>           <chr>       
#> 1 0036A000002… Rose                    NA Steven Mortimer 0016A000003…
#> 2 0036A000002… Sean                    NA Steven Mortimer 0016A000003…
#> 3 0036A000002… Jack                    99 Steven Mortimer 0016A000003…
#> 4 0036A000002… Tim                     NA Steven Mortimer 0016A000003…
#> 5 0036A000002… John                    23 Steven Mortimer 0016A000003…
#> # … with 9 more rows, and 3 more variables: `Account Name` <chr>, `Billing
#> #   City` <chr>, `Account Owner` <chr>
…
# filter records where the account billing address city is not empty
filter2 <-  list(column = "ACCOUNT.ADDRESS1_CITY",
                        operator = "notEqual", 
                        value = "")

# combine filter1 and filter2 using 'AND' which means that records must meet both filters
results_using_AND <- sf_run_report(my_report_id, 
                                   report_boolean_logic = "1 AND 2",
                                   report_filters = list(filter1, filter2))
results_using_AND
#> # A tibble: 14 x 8
#>   `Contact ID` `First Name` `test number` `Contact Owner` `Account ID`
#>   <chr>        <chr>                <dbl> <chr>           <chr>       
#> 1 0036A000002… Rose                    NA Steven Mortimer 0016A000003…
#> 2 0036A000002… Sean                    NA Steven Mortimer 0016A000003…
#> 3 0036A000002… Jack                    99 Steven Mortimer 0016A000003…
#> 4 0036A000002… Tim                     NA Steven Mortimer 0016A000003…
#> 5 0036A000002… John                    23 Steven Mortimer 0016A000003…
#> # … with 9 more rows, and 3 more variables: `Account Name` <chr>, `Billing
#> #   City` <chr>, `Account Owner` <chr>
…
# operators to filter a picklist field
picklist_field_operators <- report_filters %>% 
  filter(supported_field_type == "picklist")
picklist_field_operators
#> # A tibble: 9 x 3
#>   supported_field_type label         name       
#>   <chr>                <chr>         <chr>      
#> 1 picklist             equals        equals     
#> 2 picklist             not equal to  notEqual   
#> 3 picklist             less than     lessThan   
#> 4 picklist             greater than  greaterThan
#> 5 picklist             less or equal lessOrEqual
#> # … with 4 more rows
…
