Working with Bulk APIs • salesforcer
…
n <- 20
prefix <- paste0("Bulk-", as.integer(runif(1,1,100000)), "-")
new_contacts <- tibble(FirstName = rep("Test", n),
                       LastName = paste0("Contact-Create-", 1:n),
                       test_number__c = 1:n,
                       My_External_Id__c=paste0(prefix, letters[1:n]))

created_records_v1 <- sf_create(new_contacts[1:10,], 
                                object_name = "Contact", 
                                api_type = "Bulk 1.0")
created_records_v1
#> # A tibble: 10 × 4
#>   Id                 Success Created Error
#>   <chr>              <lgl>   <lgl>   <lgl>
#> 1 003Kg000002AZFzIAO TRUE    TRUE    NA   
#> 2 003Kg000002AZG0IAO TRUE    TRUE    NA   
#> 3 003Kg000002AZG1IAO TRUE    TRUE    NA   
#> 4 003Kg000002AZG2IAO TRUE    TRUE    NA   
#> 5 003Kg000002AZG3IAO TRUE    TRUE    NA   
#> # ℹ 5 more rows

created_records_v2 <- sf_create(new_contacts[11:20,],
                                object_name = "Contact", 
                                api_type = "Bulk 2.0")
created_records_v2
#> # A tibble: 10 × 7
#>   sf__Id             sf__Created sf__Error FirstName LastName  My_External_Id__c
#>   <chr>              <lgl>       <lgl>     <chr>     <chr>     <chr>            
#> 1 003Kg000002AZG9IAO TRUE        NA        Test      Contact-… Bulk-60076-k     
#> 2 003Kg000002AZGAIA4 TRUE        NA        Test      Contact-… Bulk-60076-l     
#> 3 003Kg000002AZGBIA4 TRUE        NA        Test      Contact-… Bulk-60076-m     
#> 4 003Kg000002AZGCIA4 TRUE        NA        Test      Contact-… Bulk-60076-n     
#> 5 003Kg000002AZGDIA4 TRUE        NA        Test      Contact-… Bulk-60076-o     
#> # ℹ 5 more rows
#> # ℹ 1 more variable: test_number__c <dbl>
…
