Working with Attachments • salesforcer
…
# create a data.frame or tbl_df out of this information
attachment_details <- tibble(Body = rep(c(file_path1, 
                                          file_path2, 
                                          file_path3), 
                                        times=2),
                             ParentId = rep(c(parent_record_id1, 
                                              parent_record_id2), 
                                            each=3))

# create the attachments!
result <- sf_create_attachment(attachment_details)
result
#> # A tibble: 6 × 2
#>   id                 success
#>   <chr>              <lgl>  
#> 1 00PKg000001EiCWMA0 TRUE   
#> 2 00PKg000001EiCbMAK TRUE   
#> 3 00PKg000001EiCgMAK TRUE   
#> 4 00PKg000001EiClMAK TRUE   
#> 5 00PKg000001Ei3fMAC TRUE   
#> # ℹ 1 more row
…
After uploading attachments to Salesforce you can download them by
first querying the metadata in the Attachment object. This metadata
provides the Id for the blob data attachment for download. A convenience
function, sf_download_attachment(), has been created to
download attachments quickly. The example below shows how to query the
metadata of attachments belonging to particular ParentId.

# pull down all attachments associated with a particular record
queried_attachments <- sf_query(sprintf("SELECT Id, Body, Name, ParentId
                                         FROM Attachment
                                         WHERE ParentId IN ('%s', '%s')", 
                                         parent_record_id1, parent_record_id2))
queried_attachments
#> # A tibble: 10 × 4
#>   Id                 Body                                         Name  ParentId
#>   <chr>              <chr>                                        <chr> <chr>   
#> 1 00PKg000001EiCbMAK /services/data/v61.0/sobjects/Attachment/00… logo… 0016A00…
#> 2 00PKg000001EiCWMA0 /services/data/v61.0/sobjects/Attachment/00… clou… 0016A00…
#> 3 00PKg000001EgtEMAS /services/data/v61.0/sobjects/Attachment/00… old-… 0016A00…
#> 4 00PKg000001EiCgMAK /services/data/v61.0/sobjects/Attachment/00… old-… 0016A00…
#> 5 00PKg000001EiCqMAK /services/data/v61.0/sobjects/Attachment/00… old-… 0016A00…
#> # ℹ 5 more rows
…
# create the attachment metadata required (Name, Body, ParentId)
attachment_details <- queried_attachments %>% 
  mutate(Body = file.path(Path, Name)) %>% 
  select(Name, Body, ParentId) 

result <- sf_create_attachment(attachment_details, api_type="Bulk 1.0")
result
#> # A tibble: 10 × 4
#>   Id                 Success Created Error
#>   <chr>              <lgl>   <lgl>   <lgl>
#> 1 00PKg000001EiD0MAK TRUE    TRUE    NA   
#> 2 00PKg000001EiD1MAK TRUE    TRUE    NA   
#> 3 00PKg000001EiD2MAK TRUE    TRUE    NA   
#> 4 00PKg000001EiD3MAK TRUE    TRUE    NA   
#> 5 00PKg000001EiD4MAK TRUE    TRUE    NA   
#> # ℹ 5 more rows
…
